<svg width="32" height="15" viewBox="0 0 32 15" fill="none" xmlns="http://www.w3.org/2000/svg">
<path d="M1.51172 10.5782C1.51172 10.5782 4.05257 5.86821 6.97174 7.48998C9.89092 9.11174 10.2693 10.5782 12.8641 9.60515C15.4589 8.63209 15.6213 0.408185 17.8918 2.02995C20.1623 3.65172 22.0017 13.4999 30.6319 13.4999" stroke="url(#paint0_linear)" stroke-width="1.82001" stroke-linecap="round" stroke-linejoin="round"/>
<defs>
<linearGradient id="paint0_linear" x1="19.497" y1="-1.27376" x2="9.53926" y2="17.7105" gradientUnits="userSpaceOnUse">
<stop stop-color="#FF30AC" stop-opacity="0.01"/>
<stop offset="1" stop-color="#FF8BAC"/>
</linearGradient>
</defs>
</svg>
