<svg width="30" height="30" viewBox="0 0 30 30" fill="none" xmlns="http://www.w3.org/2000/svg">
<path d="M27.2906 18.6842C26.8987 18.6842 26.5812 18.9945 26.5812 19.3775V25.5332C26.5798 26.6815 25.6279 27.612 24.4529 27.6131H4.54713C3.37214 27.612 2.42024 26.6815 2.41885 25.5332V7.4665C2.42024 6.3185 3.37214 5.38796 4.54713 5.3866H10.846C11.2379 5.3866 11.5555 5.07624 11.5555 4.6933C11.5555 4.31063 11.2379 4 10.846 4H4.54713C2.589 4.00217 1.00222 5.55289 1 7.4665V25.5335C1.00222 27.4471 2.589 28.9978 4.54713 29H24.4529C26.411 28.9978 27.9978 27.4471 28 25.5335V19.3775C28 18.9945 27.6824 18.6842 27.2906 18.6842Z" fill="#757575" stroke="#757575" stroke-width="0.5"/>
<path d="M27.2178 1.94353C25.9596 0.68549 23.9198 0.68549 22.6617 1.94353L9.88944 14.7146C9.80191 14.8022 9.73871 14.9107 9.70571 15.0298L8.02612 21.0929C7.95705 21.3415 8.02724 21.6077 8.20958 21.7903C8.39219 21.9726 8.65842 22.0428 8.90703 21.974L14.9707 20.2943C15.0898 20.2613 15.1984 20.1981 15.2859 20.1106L28.0579 7.33921C29.314 6.08033 29.314 4.04241 28.0579 2.78353L27.2178 1.94353ZM11.4493 15.1799L21.9024 4.7275L25.2736 8.0984L14.8203 18.5508L11.4493 15.1799ZM10.7759 16.5311L13.4693 19.2245L9.74374 20.2566L10.7759 16.5311ZM27.0455 6.32696L26.2863 7.08615L22.9148 3.71497L23.6743 2.95578C24.3732 2.25699 25.5063 2.25699 26.2052 2.95578L27.0455 3.79578C27.7432 4.49541 27.7432 5.62761 27.0455 6.32696Z" fill="#757575" stroke="#757575" stroke-width="0.5"/>
</svg>
