<svg width="24" height="32" viewBox="0 0 24 32" fill="none" xmlns="http://www.w3.org/2000/svg">
<path d="M12.0002 0C5.38211 0 0 5.38211 0 12.0002C0 20.3184 10.8322 31.2466 11.2922 31.7086C11.4882 31.9026 11.7442 32.0006 12.0002 32.0006C12.2562 32.0006 12.5123 31.9026 12.7083 31.7086C13.1683 31.2466 24.0005 20.3184 24.0005 12.0002C24.0005 5.38211 18.6184 0 12.0002 0ZM12.0002 29.5546C9.6122 26.9985 2.00004 18.3544 2.00004 12.0002C2.00004 6.48613 6.48613 2.00004 12.0002 2.00004C17.5144 2.00004 22.0004 6.48613 22.0004 12.0002C22.0004 18.3484 14.3883 26.9985 12.0002 29.5546Z" fill="#757575"/>
<path d="M12.0001 6C8.69205 6 6 8.69205 6 12.0001C6 15.3082 8.69205 18.0002 12.0001 18.0002C15.3082 18.0002 18.0002 15.3082 18.0002 12.0001C18.0002 8.69205 15.3082 6 12.0001 6ZM12.0001 16.0002C9.79408 16.0002 8.00004 14.2062 8.00004 12.0001C8.00004 9.79408 9.79408 8.00004 12.0001 8.00004C14.2062 8.00004 16.0002 9.79408 16.0002 12.0001C16.0002 14.2062 14.2062 16.0002 12.0001 16.0002Z" fill="#757575"/>
</svg>
