<svg width="6" height="7" viewBox="0 0 6 7" fill="none" xmlns="http://www.w3.org/2000/svg">
<path d="M2.17938 4.18146L1.35206 3.35414C1.04745 3.04953 1.04745 2.55566 1.35206 2.25105C1.65667 1.94644 2.15054 1.94644 2.45515 2.25105L3.28247 3.07837L5.46094 0.899902V6.35993H0.000911713L2.17938 4.18146Z" fill="#EB5757"/>
</svg>
