<svg width="9" height="17" viewBox="0 0 9 17" fill="none" xmlns="http://www.w3.org/2000/svg">
<path d="M6.68488 7.79684C6.02602 7.43273 5.32556 7.15532 4.63202 6.86751C4.22978 6.70106 3.84487 6.50687 3.50504 6.23639C2.83578 5.70237 2.96408 4.83546 3.74777 4.49216C3.9697 4.39507 4.20204 4.36386 4.43784 4.34999C5.34636 4.30144 6.20981 4.46789 7.03164 4.8632C7.44082 5.06086 7.57606 4.99844 7.71477 4.57192C7.86041 4.12112 7.98178 3.66339 8.11702 3.20913C8.20718 2.90398 8.09621 2.70285 7.8084 2.57455C7.28131 2.34222 6.74036 2.17577 6.17166 2.08561C5.42959 1.97118 5.42959 1.96771 5.42612 1.22216C5.42265 0.171463 5.42265 0.171463 4.36848 0.171463C4.21591 0.171463 4.06333 0.167995 3.91075 0.171463C3.41835 0.185334 3.33512 0.272025 3.32125 0.7679C3.31432 0.98983 3.32125 1.21176 3.31778 1.43716C3.31432 2.09601 3.31085 2.08561 2.67973 2.31447C1.15397 2.8693 0.210765 3.9096 0.110203 5.57407C0.0200436 7.04782 0.789863 8.04304 2.00007 8.76778C2.74562 9.21511 3.57092 9.47865 4.36155 9.82888C4.67017 9.96412 4.96492 10.1202 5.22153 10.3352C5.98094 10.9628 5.84224 12.0066 4.94065 12.4019C4.45864 12.6134 3.9489 12.6654 3.42528 12.5995C2.61732 12.499 1.84403 12.2875 1.11582 11.9095C0.689301 11.6875 0.564465 11.7465 0.418824 12.2077C0.293988 12.6065 0.183023 13.0087 0.0720585 13.411C-0.0770507 13.9519 -0.0215686 14.0802 0.495112 14.3334C1.15397 14.6524 1.8579 14.8154 2.57571 14.9298C3.13747 15.02 3.1548 15.0442 3.16174 15.6268C3.16521 15.8903 3.16521 16.1574 3.16867 16.4209C3.17214 16.7538 3.33165 16.948 3.67495 16.9549C4.06333 16.9618 4.45517 16.9618 4.84355 16.9514C5.16258 16.9445 5.32556 16.7711 5.32556 16.4486C5.32556 16.088 5.34289 15.7239 5.32902 15.3633C5.31168 14.9957 5.4712 14.8084 5.8249 14.7113C6.6398 14.4894 7.33333 14.0525 7.86735 13.4006C9.3515 11.5974 8.78627 8.9585 6.68488 7.79684Z" fill="#757575"/>
</svg>
