<svg width="227" height="78" viewBox="0 0 227 78" fill="none" xmlns="http://www.w3.org/2000/svg">
<g filter="url(#filter0_d)">
<path d="M208.98 8.27832C208.98 8.27832 198.858 30.8259 190.001 30.8259C181.144 30.8259 177.348 17.772 165.96 17.772C154.572 17.772 140.654 51 129.266 51C117.879 51 103.96 30.8259 96.3684 30.8259C88.7766 30.8259 79.9194 46.2532 66.0011 46.2532C53.6111 46.2532 53.6111 38.3973 49.5521 40.5122C45.4932 42.6271 41.7093 42.6569 35.5083 36.2444C29.3073 29.8318 24.6844 42.5891 17.9195 36.2444" stroke="url(#paint0_linear)" stroke-width="3.56014" stroke-linecap="round" stroke-linejoin="round"/>
</g>
<defs>
<filter id="filter0_d" x="0.713346" y="0.564478" width="225.476" height="77.1368" filterUnits="userSpaceOnUse" color-interpolation-filters="sRGB">
<feFlood flood-opacity="0" result="BackgroundImageFix"/>
<feColorMatrix in="SourceAlpha" type="matrix" values="0 0 0 0 0 0 0 0 0 0 0 0 0 0 0 0 0 0 127 0" result="hardAlpha"/>
<feOffset dy="9.49371"/>
<feGaussianBlur stdDeviation="7.71364"/>
<feColorMatrix type="matrix" values="0 0 0 0 0.0456816 0 0 0 0 0.0410428 0 0 0 0 0.12686 0 0 0 0.14 0"/>
<feBlend mode="normal" in2="BackgroundImageFix" result="effect1_dropShadow"/>
<feBlend mode="normal" in="SourceGraphic" in2="effect1_dropShadow" result="shape"/>
</filter>
<linearGradient id="paint0_linear" x1="208.472" y1="68.6758" x2="17.9195" y2="68.6758" gradientUnits="userSpaceOnUse">
<stop stop-color="#8DF8A5"/>
<stop offset="0.831269" stop-color="#36BBFF" stop-opacity="0.466004"/>
<stop offset="1" stop-color="#C1F793" stop-opacity="0.01"/>
</linearGradient>
</defs>
</svg>
